Project 1
…
#finding summary statistics for each numeric variable overall
bothdata%>%mutate(sdSATM=sd(SATM,na.rm=T))

## # A tibble: 50 x 15
## # Groups:   pay [20]
##    State Murder Assault UrbanPop  Rape region   pop  SATV  SATM percent dollars
##    <chr>  <dbl>   <int>    <int> <dbl> <fct>  <int> <int> <int>   <int>   <dbl>
##  1 AL      13.2     236       58  21.2 ESC     4041   470   514       8    3.65
##  2 AK      10       263       48  44.5 PAC      550   438   476      42    7.89
##  3 AZ       8.1     294       80  31   MTN     3665   445   497      25    4.23
##  4 AR       8.8     190       50  19.5 WSC     2351   470   511       6    3.33
##  5 CA       9       276       91  40.6 PAC    29760   419   484      45    4.83
##  6 CO       7.9     204       78  38.7 MTN     3294   456   513      28    4.81
##  7 CN       3.3     110       77  11.1 NE      3287   430   471      74    7.91
##  8 DE       5.9     238       72  15.8 SA       666   433   470      58    6.02
##  9 FL      15.4     335       80  31.9 SA     12938   418   466      44    5.15
## 10 GA      17.4     211       60  25.8 SA      6478   401   443      57    4.86
## # ... with 40 more rows, and 4 more variables: pay <int>, pay_cat <chr>,
## #   percent_cat <fct>, sdSATM <dbl>
…
